<?xml version="1.0" encoding="UTF-8" standalone="no"?>
<!-- Created with Inkscape (http://www.inkscape.org/) -->

<svg
   xmlns:dc="http://purl.org/dc/elements/1.1/"
   xmlns:cc="http://creativecommons.org/ns#"
   xmlns:rdf="http://www.w3.org/1999/02/22-rdf-syntax-ns#"
   xmlns:svg="http://www.w3.org/2000/svg"
   xmlns="http://www.w3.org/2000/svg"
   xmlns:sodipodi="http://sodipodi.sourceforge.net/DTD/sodipodi-0.dtd"
   xmlns:inkscape="http://www.inkscape.org/namespaces/inkscape"
   width="210mm"
   height="297mm"
   viewBox="0 0 210 297"
   version="1.1"
   id="svg8"
   inkscape:version="0.92.4 (5da689c313, 2019-01-14)"
   sodipodi:docname="door-icon.svg">
  <defs
     id="defs2" />
  <sodipodi:namedview
     id="base"
     pagecolor="#ffffff"
     bordercolor="#666666"
     borderopacity="1.0"
     inkscape:pageopacity="0.0"
     inkscape:pageshadow="2"
     inkscape:zoom="1.979899"
     inkscape:cx="508.33652"
     inkscape:cy="625.74468"
     inkscape:document-units="mm"
     inkscape:current-layer="layer1"
     showgrid="false"
     inkscape:window-width="3840"
     inkscape:window-height="2053"
     inkscape:window-x="1920"
     inkscape:window-y="50"
     inkscape:window-maximized="1" />
  <metadata
     id="metadata5">
    <rdf:RDF>
      <cc:Work
         rdf:about="">
        <dc:format>image/svg+xml</dc:format>
        <dc:type
           rdf:resource="http://purl.org/dc/dcmitype/StillImage" />
        <dc:title />
      </cc:Work>
    </rdf:RDF>
  </metadata>
  <g
     inkscape:label="Layer 1"
     inkscape:groupmode="layer"
     id="layer1">
    <g
       id="g849"
       style="fill:#cccccc;fill-opacity:1"
       transform="matrix(1,0,0,0.85220303,-16.303441,21.326717)">
      <path
         sodipodi:nodetypes="ccccccccccccc"
         inkscape:connector-curvature="0"
         id="rect815"
         transform="scale(0.26458333)"
         d="m 208.57003,196.80469 v 697.14258 h 502.14286 l 0,-136.53742 h -56.97851 l 0,69.21124 H 265.5505 V 264.13086 h 388.18388 l 0,79.88128 h 56.97851 l 0,-147.20745 z"
         style="opacity:1;fill:#cccccc;fill-opacity:1;stroke:#000000;stroke-width:0;stroke-linejoin:round;stroke-miterlimit:4;stroke-dasharray:none;stroke-opacity:0.45490196" />
      <g
         style="fill:#cccccc;fill-opacity:1"
         transform="matrix(0,0.39935504,-0.39935504,0,220.43105,102.97688)"
         inkscape:label="Layer 1"
         id="layer1-7">
        <g
           style="fill:#cccccc;fill-opacity:1"
           id="g824">
          <rect
             ry="3.1638124"
             y="44.210041"
             x="93.172256"
             height="250.94951"
             width="20.773567"
             id="rect815-6"
             style="opacity:1;fill:#cccccc;fill-opacity:1;stroke:#000000;stroke-width:0;stroke-linejoin:round;stroke-miterlimit:4;stroke-dasharray:none;stroke-opacity:0.45490196" />
          <g
             style="fill:#cccccc;fill-opacity:1"
             transform="matrix(4.2276912,0,0,4.2276912,-422.22191,-555.1462)"
             id="g823">
            <rect
               ry="0.42994791"
               y="10.156973"
               x="186.03543"
               height="31.683798"
               width="4.9136906"
               id="rect817"
               style="opacity:1;fill:#cccccc;fill-opacity:1;stroke:#000000;stroke-width:0;stroke-linejoin:round;stroke-miterlimit:4;stroke-dasharray:none;stroke-opacity:0.45490196"
               transform="rotate(45)" />
            <rect
               style="opacity:1;fill:#cccccc;fill-opacity:1;stroke:#000000;stroke-width:0;stroke-linejoin:round;stroke-miterlimit:4;stroke-dasharray:none;stroke-opacity:0.45490196"
               id="rect819"
               width="4.9136906"
               height="31.683798"
               x="-15.069812"
               y="186.03775"
               transform="rotate(-45)"
               ry="0.49608663"
               rx="0.57877576" />
          </g>
        </g>
      </g>
    </g>
  </g>
</svg>
